{
	"id": "63c4514f-c9fb-2a4f-c778-0544306dc817",
	"name": "buckle up",
	"description": "",
	"order": [
		"dc034521-7d5a-42da-6bf9-275b01917c97",
		"fcf07245-171d-ae75-ba7c-e9af24a1eaed",
		"9c6797ee-3e3f-54f8-ec17-e76fea5bc4a9",
		"65c89c4e-0094-fa31-2f23-b10d1a45e571",
		"60c57cd9-7262-5ac0-3759-b0e5dd0b5686",
		"996365c0-73dc-3f8e-64e4-02a87e2a34a2",
		"bf9501d1-6715-9266-d123-c23df9e93d18",
		"a3413e24-6b0f-120f-f718-3ef8ac244e63",
		"02e8f8bd-6ba6-3c19-b2db-b8be4e4f5f30",
		"943320d8-de01-ccef-caa8-2ac97d8ec667"
	],
	"folders": [],
	"timestamp": 1493203019157,
	"owner": "",
	"public": false,
	"requests": [
		{
			"id": "02e8f8bd-6ba6-3c19-b2db-b8be4e4f5f30",
			"url": "http://localhost:8000/api/auth/notifications",
			"method": "POST",
			"headers": "Content-Type: application/x-www-form-urlencoded\n",
			"data": [
				{
					"key": "id",
					"value": "12",
					"type": "text",
					"enabled": true,
					"warning": ""
				},
				{
					"key": "token",
					"value": "eyJ0eXAiOiJKV1QiLCJhbGciOiJIUzI1NiJ9.eyJzdWIiOjEyLCJpc3MiOiJodHRwOlwvXC9sb2NhbGhvc3Q6ODAwMFwvYXBpXC9hdXRoXC9sb2dpbiIsImlhdCI6MTQ5Mjc3ODkxOCwiZXhwIjoxMzAzNDE3OTc3MzgsIm5iZiI6MTQ5Mjc3ODkxOCwianRpIjoiQTdKdUlSNnR0S2NrSnRHMyJ9._Q3bTfXpjUE6dEeNpXoJRcPDldXF_AN4CkGf10DG8t4",
					"type": "text",
					"enabled": true,
					"warning": ""
				},
				{
					"key": "user_receiver",
					"value": "11",
					"type": "text",
					"enabled": true,
					"warning": ""
				},
				{
					"key": "text",
					"value": "meya meya",
					"type": "text",
					"enabled": true,
					"warning": ""
				},
				{
					"key": "stars",
					"value": "5",
					"type": "text",
					"enabled": true,
					"warning": ""
				},
				{
					"key": "trip_id",
					"value": "1",
					"type": "text",
					"enabled": true,
					"warning": ""
				}
			],
			"dataMode": "params",
			"tests": null,
			"preRequestScript": null,
			"currentHelper": "normal",
			"pathVariables": {},
			"version": 2,
			"name": "http://localhost:8000/api/auth/notifications",
			"description": "",
			"descriptionFormat": "html",
			"collectionId": "63c4514f-c9fb-2a4f-c778-0544306dc817"
		},
		{
			"id": "60c57cd9-7262-5ac0-3759-b0e5dd0b5686",
			"url": "http://localhost:8000/api/trip/post",
			"method": "POST",
			"headers": "Content-Type: application/x-www-form-urlencoded\n",
			"data": [
				{
					"key": "id",
					"value": "11",
					"type": "text",
					"enabled": true,
					"warning": ""
				},
				{
					"key": "token",
					"value": "eyJ0eXAiOiJKV1QiLCJhbGciOiJIUzI1NiJ9.eyJzdWIiOjEyLCJpc3MiOiJodHRwOlwvXC9sb2NhbGhvc3Q6ODAwMFwvYXBpXC9hdXRoXC9sb2dpbiIsImlhdCI6MTQ5Mjc3ODkxOCwiZXhwIjoxMzAzNDE3OTc3MzgsIm5iZiI6MTQ5Mjc3ODkxOCwianRpIjoiQTdKdUlSNnR0S2NrSnRHMyJ9._Q3bTfXpjUE6dEeNpXoJRcPDldXF_AN4CkGf10DG8t4",
					"type": "text",
					"enabled": true,
					"warning": ""
				},
				{
					"key": "user_poster",
					"value": "11",
					"type": "text",
					"enabled": true,
					"warning": ""
				},
				{
					"key": "trip_from",
					"value": "2",
					"type": "text",
					"enabled": true,
					"warning": ""
				},
				{
					"key": "trip_to",
					"value": "1",
					"type": "text",
					"enabled": true,
					"warning": ""
				},
				{
					"key": "seats",
					"value": "4",
					"type": "text",
					"enabled": true,
					"warning": ""
				},
				{
					"key": "price_per_seat",
					"value": "60",
					"type": "text",
					"enabled": true,
					"warning": ""
				},
				{
					"key": "date_time",
					"value": "2017-4-27 10:00:00",
					"type": "text",
					"enabled": true,
					"warning": ""
				}
			],
			"dataMode": "params",
			"tests": null,
			"preRequestScript": null,
			"currentHelper": "normal",
			"pathVariables": {},
			"version": 2,
			"name": "http://localhost:8000/api/trip/post",
			"description": "",
			"descriptionFormat": "html",
			"collectionId": "63c4514f-c9fb-2a4f-c778-0544306dc817"
		},
		{
			"id": "65c89c4e-0094-fa31-2f23-b10d1a45e571",
			"url": "http://localhost:8000/api/add_validation/license",
			"method": "POST",
			"headers": "Content-Type: application/x-www-form-urlencoded\n",
			"data": [
				{
					"key": "id",
					"value": "12",
					"type": "text",
					"enabled": true,
					"warning": ""
				},
				{
					"key": "token",
					"value": "eyJ0eXAiOiJKV1QiLCJhbGciOiJIUzI1NiJ9.eyJzdWIiOjEyLCJpc3MiOiJodHRwOlwvXC9sb2NhbGhvc3Q6ODAwMFwvYXBpXC9hdXRoXC9sb2dpbiIsImlhdCI6MTQ5Mjc3ODkxOCwiZXhwIjoxMzAzNDE3OTc3MzgsIm5iZiI6MTQ5Mjc3ODkxOCwianRpIjoiQTdKdUlSNnR0S2NrSnRHMyJ9._Q3bTfXpjUE6dEeNpXoJRcPDldXF_AN4CkGf10DG8t4",
					"type": "text",
					"enabled": true,
					"warning": ""
				},
				{
					"key": "",
					"value": "",
					"type": "file",
					"enabled": true,
					"warning": ""
				}
			],
			"dataMode": "params",
			"tests": null,
			"preRequestScript": null,
			"currentHelper": "normal",
			"pathVariables": {},
			"version": 2,
			"name": "http://localhost:8000/api/add_validation/license",
			"description": "",
			"descriptionFormat": "html",
			"collectionId": "63c4514f-c9fb-2a4f-c778-0544306dc817"
		},
		{
			"id": "943320d8-de01-ccef-caa8-2ac97d8ec667",
			"url": "http://localhost:8000/api/auth/user/review",
			"method": "POST",
			"headers": "Content-Type: application/x-www-form-urlencoded\n",
			"data": [
				{
					"key": "id",
					"value": "12",
					"type": "text",
					"enabled": true,
					"warning": ""
				},
				{
					"key": "token",
					"value": "eyJ0eXAiOiJKV1QiLCJhbGciOiJIUzI1NiJ9.eyJzdWIiOjEyLCJpc3MiOiJodHRwOlwvXC9sb2NhbGhvc3Q6ODAwMFwvYXBpXC9hdXRoXC9sb2dpbiIsImlhdCI6MTQ5Mjc3ODkxOCwiZXhwIjoxMzAzNDE3OTc3MzgsIm5iZiI6MTQ5Mjc3ODkxOCwianRpIjoiQTdKdUlSNnR0S2NrSnRHMyJ9._Q3bTfXpjUE6dEeNpXoJRcPDldXF_AN4CkGf10DG8t4",
					"type": "text",
					"enabled": true,
					"warning": ""
				},
				{
					"key": "user_receiver",
					"value": "11",
					"type": "text",
					"enabled": true,
					"warning": ""
				},
				{
					"key": "text",
					"value": "meya meya",
					"type": "text",
					"enabled": true,
					"warning": ""
				},
				{
					"key": "stars",
					"value": "5",
					"type": "text",
					"enabled": true,
					"warning": ""
				},
				{
					"key": "trip_id",
					"value": "1",
					"type": "text",
					"enabled": true,
					"warning": ""
				}
			],
			"dataMode": "params",
			"tests": null,
			"preRequestScript": null,
			"currentHelper": "normal",
			"pathVariables": {},
			"version": 2,
			"name": "http://localhost:8000/api/auth/user/review",
			"description": "",
			"descriptionFormat": "html",
			"collectionId": "63c4514f-c9fb-2a4f-c778-0544306dc817"
		},
		{
			"id": "996365c0-73dc-3f8e-64e4-02a87e2a34a2",
			"url": "http://localhost:8000/api/auth/trip/search",
			"method": "POST",
			"headers": "Content-Type: application/x-www-form-urlencoded\n",
			"data": [
				{
					"key": "id",
					"value": "11",
					"type": "text",
					"enabled": true,
					"warning": ""
				},
				{
					"key": "token",
					"value": "eyJ0eXAiOiJKV1QiLCJhbGciOiJIUzI1NiJ9.eyJzdWIiOjEyLCJpc3MiOiJodHRwOlwvXC9sb2NhbGhvc3Q6ODAwMFwvYXBpXC9hdXRoXC9sb2dpbiIsImlhdCI6MTQ5Mjc3ODkxOCwiZXhwIjoxMzAzNDE3OTc3MzgsIm5iZiI6MTQ5Mjc3ODkxOCwianRpIjoiQTdKdUlSNnR0S2NrSnRHMyJ9._Q3bTfXpjUE6dEeNpXoJRcPDldXF_AN4CkGf10DG8t4",
					"type": "text",
					"enabled": true,
					"warning": ""
				},
				{
					"key": "user_poster",
					"value": "11",
					"type": "text",
					"enabled": true,
					"warning": ""
				},
				{
					"key": "from",
					"value": "2",
					"type": "text",
					"enabled": true,
					"warning": ""
				},
				{
					"key": "to",
					"value": "1",
					"type": "text",
					"enabled": true,
					"warning": ""
				},
				{
					"key": "seats",
					"value": "4",
					"type": "text",
					"enabled": true,
					"warning": ""
				},
				{
					"key": "price_per_seat",
					"value": "50",
					"type": "text",
					"enabled": true,
					"warning": ""
				},
				{
					"key": "date_time",
					"value": "2017-4-27 10:00:00",
					"type": "text",
					"enabled": true,
					"warning": ""
				}
			],
			"dataMode": "params",
			"tests": null,
			"preRequestScript": null,
			"currentHelper": "normal",
			"pathVariables": {},
			"version": 2,
			"name": "http://localhost:8000/api/auth/trip/search",
			"description": "",
			"descriptionFormat": "html",
			"collectionId": "63c4514f-c9fb-2a4f-c778-0544306dc817"
		},
		{
			"id": "9c6797ee-3e3f-54f8-ec17-e76fea5bc4a9",
			"url": "http://localhost:8000/api/add_validation/license",
			"method": "POST",
			"headers": "Content-Type: application/x-www-form-urlencoded\n",
			"data": [
				{
					"key": "id",
					"value": "12",
					"type": "text",
					"enabled": true,
					"warning": ""
				},
				{
					"key": "token",
					"value": "eyJ0eXAiOiJKV1QiLCJhbGciOiJIUzI1NiJ9.eyJzdWIiOjEyLCJpc3MiOiJodHRwOlwvXC9sb2NhbGhvc3Q6ODAwMFwvYXBpXC9hdXRoXC9sb2dpbiIsImlhdCI6MTQ5Mjc3ODkxOCwiZXhwIjoxMzAzNDE3OTc3MzgsIm5iZiI6MTQ5Mjc3ODkxOCwianRpIjoiQTdKdUlSNnR0S2NrSnRHMyJ9._Q3bTfXpjUE6dEeNpXoJRcPDldXF_AN4CkGf10DG8t4",
					"type": "text",
					"enabled": true,
					"warning": ""
				},
				{
					"key": "",
					"value": "",
					"type": "file",
					"enabled": true,
					"warning": ""
				}
			],
			"dataMode": "params",
			"tests": null,
			"preRequestScript": null,
			"currentHelper": "normal",
			"pathVariables": {},
			"version": 2,
			"name": "http://localhost:8000/api/add_validation/license",
			"description": "",
			"descriptionFormat": "html",
			"collectionId": "63c4514f-c9fb-2a4f-c778-0544306dc817"
		},
		{
			"id": "a3413e24-6b0f-120f-f718-3ef8ac244e63",
			"url": "http://localhost:8000/api/auth/trip/respond",
			"method": "POST",
			"headers": "Content-Type: application/x-www-form-urlencoded\n",
			"data": [
				{
					"key": "id",
					"value": "12",
					"type": "text",
					"enabled": true,
					"warning": ""
				},
				{
					"key": "token",
					"value": "eyJ0eXAiOiJKV1QiLCJhbGciOiJIUzI1NiJ9.eyJzdWIiOjEyLCJpc3MiOiJodHRwOlwvXC9sb2NhbGhvc3Q6ODAwMFwvYXBpXC9hdXRoXC9sb2dpbiIsImlhdCI6MTQ5Mjc3ODkxOCwiZXhwIjoxMzAzNDE3OTc3MzgsIm5iZiI6MTQ5Mjc3ODkxOCwianRpIjoiQTdKdUlSNnR0S2NrSnRHMyJ9._Q3bTfXpjUE6dEeNpXoJRcPDldXF_AN4CkGf10DG8t4",
					"type": "text",
					"enabled": true,
					"warning": ""
				},
				{
					"key": "trip_id",
					"value": "1",
					"type": "text",
					"enabled": true,
					"warning": ""
				},
				{
					"key": "status",
					"value": "1",
					"type": "text",
					"enabled": true,
					"warning": ""
				}
			],
			"dataMode": "params",
			"tests": null,
			"preRequestScript": null,
			"currentHelper": "normal",
			"pathVariables": {},
			"version": 2,
			"name": "http://localhost:8000/api/auth/trip/respond",
			"description": "",
			"descriptionFormat": "html",
			"collectionId": "63c4514f-c9fb-2a4f-c778-0544306dc817"
		},
		{
			"id": "bf9501d1-6715-9266-d123-c23df9e93d18",
			"url": "http://localhost:8000/api/auth/trip/request",
			"method": "POST",
			"headers": "Content-Type: application/x-www-form-urlencoded\n",
			"data": [
				{
					"key": "id",
					"value": "12",
					"type": "text",
					"enabled": true,
					"warning": ""
				},
				{
					"key": "token",
					"value": "eyJ0eXAiOiJKV1QiLCJhbGciOiJIUzI1NiJ9.eyJzdWIiOjEyLCJpc3MiOiJodHRwOlwvXC9sb2NhbGhvc3Q6ODAwMFwvYXBpXC9hdXRoXC9sb2dpbiIsImlhdCI6MTQ5Mjc3ODkxOCwiZXhwIjoxMzAzNDE3OTc3MzgsIm5iZiI6MTQ5Mjc3ODkxOCwianRpIjoiQTdKdUlSNnR0S2NrSnRHMyJ9._Q3bTfXpjUE6dEeNpXoJRcPDldXF_AN4CkGf10DG8t4",
					"type": "text",
					"enabled": true,
					"warning": ""
				},
				{
					"key": "trip_id",
					"value": "1",
					"type": "text",
					"enabled": true,
					"warning": ""
				}
			],
			"dataMode": "params",
			"tests": null,
			"preRequestScript": null,
			"currentHelper": "normal",
			"pathVariables": {},
			"version": 2,
			"name": "http://localhost:8000/api/auth/trip/request",
			"description": "",
			"descriptionFormat": "html",
			"collectionId": "63c4514f-c9fb-2a4f-c778-0544306dc817"
		},
		{
			"id": "dc034521-7d5a-42da-6bf9-275b01917c97",
			"url": "http://localhost:8000/api/auth/fbconnect",
			"method": "POST",
			"headers": "Content-Type: application/x-www-form-urlencoded\n",
			"data": [
				{
					"key": "name",
					"value": "pete",
					"type": "text",
					"enabled": true,
					"warning": ""
				},
				{
					"key": "email",
					"value": "email2345@email.com",
					"type": "text",
					"enabled": true,
					"warning": ""
				},
				{
					"key": "fb_id",
					"value": "808525318",
					"type": "text",
					"enabled": true,
					"warning": ""
				},
				{
					"key": "image_url",
					"value": "haodja.jpg",
					"type": "text",
					"enabled": true,
					"warning": ""
				},
				{
					"key": "fb_token",
					"value": "EAACEdEose0cBAFOvtdTZCOLZCdPZCuBngGZCG5q0hRMUev1oWOjtlO3aOaT4EduBEGEUPwZBiD5NOVtVvwZBLcdcXx7lvuH7OZCmDhNZBKfOOUVKm9vN3XYZBiMAoX5r0oIKckfGDBHhyVhjqkRazdxJS1RV1s4PyUryFQpBvr7UdKcshwAQdWxgMpT1ZB8q4YADkZD",
					"type": "text",
					"enabled": true,
					"warning": ""
				},
				{
					"key": "password",
					"value": "808525318",
					"type": "text",
					"enabled": true,
					"warning": ""
				}
			],
			"dataMode": "params",
			"tests": null,
			"preRequestScript": null,
			"currentHelper": "normal",
			"pathVariables": {},
			"version": 2,
			"name": "http://localhost:8000/api/auth/fbconnect",
			"description": "",
			"descriptionFormat": "html",
			"collectionId": "63c4514f-c9fb-2a4f-c778-0544306dc817"
		},
		{
			"id": "fcf07245-171d-ae75-ba7c-e9af24a1eaed",
			"url": "http://localhost:8000/api/auth/user/getProfile",
			"method": "POST",
			"headers": "Content-Type: application/x-www-form-urlencoded\n",
			"data": [
				{
					"key": "id",
					"value": "12",
					"type": "text",
					"enabled": true,
					"warning": ""
				},
				{
					"key": "token",
					"value": "eyJ0eXAiOiJKV1QiLCJhbGciOiJIUzI1NiJ9.eyJzdWIiOjEyLCJpc3MiOiJodHRwOlwvXC9sb2NhbGhvc3Q6ODAwMFwvYXBpXC9hdXRoXC9sb2dpbiIsImlhdCI6MTQ5Mjc3ODkxOCwiZXhwIjoxMzAzNDE3OTc3MzgsIm5iZiI6MTQ5Mjc3ODkxOCwianRpIjoiQTdKdUlSNnR0S2NrSnRHMyJ9._Q3bTfXpjUE6dEeNpXoJRcPDldXF_AN4CkGf10DG8t4",
					"type": "text",
					"enabled": true,
					"warning": ""
				},
				{
					"key": "user_poster",
					"value": "11",
					"type": "text",
					"enabled": true,
					"warning": ""
				},
				{
					"key": "from",
					"value": "2",
					"type": "text",
					"enabled": true,
					"warning": ""
				},
				{
					"key": "to",
					"value": "1",
					"type": "text",
					"enabled": true,
					"warning": ""
				},
				{
					"key": "seats",
					"value": "4",
					"type": "text",
					"enabled": true,
					"warning": ""
				},
				{
					"key": "price_per_seat",
					"value": "50",
					"type": "text",
					"enabled": true,
					"warning": ""
				},
				{
					"key": "date_time",
					"value": "2017-4-27 10:00:00",
					"type": "text",
					"enabled": true,
					"warning": ""
				}
			],
			"dataMode": "params",
			"tests": null,
			"preRequestScript": null,
			"currentHelper": "normal",
			"pathVariables": {},
			"version": 2,
			"name": "http://localhost:8000/api/auth/user/getProfile",
			"description": "",
			"descriptionFormat": "html",
			"collectionId": "63c4514f-c9fb-2a4f-c778-0544306dc817"
		}
	]
}